module github.com/FourthState/plasma-mvp-sidechain

require (
	github.com/VividCortex/gohistogram v1.0.0 // indirect
	github.com/allegro/bigcache v1.2.0 // indirect
	github.com/aristanetworks/goarista v0.0.0-20190219163901-728bce664cf5 // indirect
	github.com/bartekn/go-bip39 v0.0.0-20171116152956-a05967ea095d // indirect
	github.com/bgentry/speakeasy v0.1.0 // indirect
	github.com/btcsuite/btcd v0.0.0-20190115013929-ed77733ec07d // indirect
	github.com/cespare/cp v1.1.1 // indirect
	github.com/cosmos/cosmos-sdk v0.32.0
	github.com/cosmos/go-bip39 v0.0.0-20180618194314-52158e4697b8 // indirect
	github.com/deckarep/golang-set v1.7.1 // indirect
	github.com/edsrzf/mmap-go v1.0.0 // indirect
	github.com/ethereum/go-ethereum v1.8.20
	github.com/fjl/memsize v0.0.0-20180929194037-2a09253e352a // indirect
	github.com/fortytw2/leaktest v1.3.0 // indirect
	github.com/go-logfmt/logfmt v0.4.0 // indirect
	github.com/google/gofuzz v1.0.0 // indirect
	github.com/google/uuid v1.1.1 // indirect
	github.com/gorilla/mux v1.7.0
	github.com/gorilla/websocket v1.4.0 // indirect
	github.com/hashicorp/golang-lru v0.5.1 // indirect
	github.com/hashicorp/hcl v1.0.0 // indirect
	github.com/huin/goupnp v1.0.0 // indirect
	github.com/inconshreveable/mousetrap v1.0.0 // indirect
	github.com/jackpal/go-nat-pmp v1.0.1 // indirect
	github.com/jmhodges/levigo v1.0.0 // indirect
	github.com/karalabe/hid v0.0.0-20181128192157-d815e0c1a2e2 // indirect
	github.com/magiconair/properties v1.8.0 // indirect
	github.com/mattn/go-colorable v0.1.1 // indirect
	github.com/mattn/go-isatty v0.0.6 // indirect
	github.com/mitchellh/mapstructure v1.1.2 // indirect
	github.com/pborman/uuid v0.0.0-20180906182336-adf5a7427709 // indirect
	github.com/pelletier/go-toml v1.2.0 // indirect
	github.com/prometheus/client_golang v0.9.2 // indirect
	github.com/prometheus/client_model v0.0.0-20190129233127-fd36f4220a90 // indirect
	github.com/prometheus/common v0.2.0 // indirect
	github.com/prometheus/procfs v0.0.0-20190227231451-bbced9601137 // indirect
	github.com/rakyll/statik v0.1.6 // indirect
	github.com/rcrowley/go-metrics v0.0.0-20180503174638-e2704e165165 // indirect
	github.com/rjeczalik/notify v0.9.2 // indirect
	github.com/rs/cors v1.6.0 // indirect
	github.com/spf13/afero v1.2.1 // indirect
	github.com/spf13/cast v1.3.0 // indirect
	github.com/spf13/cobra v0.0.3
	github.com/spf13/jwalterweatherman v1.1.0 // indirect
	github.com/spf13/pflag v1.0.3 // indirect
	github.com/spf13/viper v1.0.3
	github.com/stretchr/testify v1.2.2
	github.com/syndtr/goleveldb v0.0.0-20190226153722-4217c9f31f58
	github.com/tendermint/btcd v0.1.0 // indirect
	github.com/tendermint/go-amino v0.14.1 // indirect
	github.com/tendermint/iavl v0.12.0 // indirect
	github.com/tendermint/tendermint v0.28.0
	github.com/zondax/hid v0.9.0 // indirect
	github.com/zondax/ledger-cosmos-go v0.9.7 // indirect
	github.com/zondax/ledger-go v0.8.0 // indirect
	golang.org/x/crypto v0.0.0-20190530122614-20be4c3c3ed5 // indirect
	golang.org/x/lint v0.0.0-20190409202823-959b441ac422 // indirect
	golang.org/x/net v0.0.0-20190603091049-60506f45cf65 // indirect
	golang.org/x/sys v0.0.0-20190602015325-4c4f7f33c9ed // indirect
	golang.org/x/text v0.3.2 // indirect
	golang.org/x/tools v0.0.0-20190603231351-8aaa1484dc10 // indirect
	google.golang.org/genproto v0.0.0-20190227213309-4f5b463f9597 // indirect
	gopkg.in/natefinch/npipe.v2 v2.0.0-20160621034901-c1b8fa8bdcce // indirect
	gopkg.in/urfave/cli.v1 v1.20.0 // indirect
	gopkg.in/yaml.v2 v2.2.2 // indirect
)

replace golang.org/x/crypto => github.com/tendermint/crypto v0.0.0-20180820045704-3764759f34a5
